{"level":30,"time":"2021-09-14T15:51:04.387Z","pid":16892,"hostname":"DESKTOP-085PCSR","msg":"Listening on 59436"}
{"level":30,"time":"2021-09-14T15:51:04.880Z","pid":16892,"hostname":"DESKTOP-085PCSR","msg":"currentBrowser: [object Object]"}
{"level":30,"time":"2021-09-14T15:51:04.897Z","pid":16892,"hostname":"DESKTOP-085PCSR","msg":"Changed active context"}
{"level":30,"time":"2021-09-14T15:51:04.902Z","pid":16892,"hostname":"DESKTOP-085PCSR","msg":"currentBrowser: [object Object]"}
{"level":30,"time":"2021-09-14T15:51:05.050Z","pid":16892,"hostname":"DESKTOP-085PCSR","msg":"Video path: undefined"}
{"level":30,"time":"2021-09-14T15:51:05.050Z","pid":16892,"hostname":"DESKTOP-085PCSR","msg":"Changed active page"}
{"level":30,"time":"2021-09-14T15:51:06.054Z","pid":16892,"hostname":"DESKTOP-085PCSR","msg":"Retrieved text for element h1 containing Gerenciamento de restaurantes"}
{"level":30,"time":"2021-09-14T15:51:06.348Z","pid":16892,"hostname":"DESKTOP-085PCSR","msg":"currentBrowser: [object Object]"}
{"level":30,"time":"2021-09-14T15:51:06.359Z","pid":16892,"hostname":"DESKTOP-085PCSR","msg":"Changed active context"}
{"level":30,"time":"2021-09-14T15:51:06.362Z","pid":16892,"hostname":"DESKTOP-085PCSR","msg":"currentBrowser: [object Object]"}
{"level":30,"time":"2021-09-14T15:51:06.546Z","pid":16892,"hostname":"DESKTOP-085PCSR","msg":"Video path: undefined"}
{"level":30,"time":"2021-09-14T15:51:06.547Z","pid":16892,"hostname":"DESKTOP-085PCSR","msg":"Changed active page"}
{"level":30,"time":"2021-09-14T15:51:07.744Z","pid":16892,"hostname":"DESKTOP-085PCSR","msg":"Retrieved text for element h1 containing Gerenciamento de restaurantes"}
{"level":30,"time":"2021-09-14T15:51:07.954Z","pid":16892,"hostname":"DESKTOP-085PCSR","msg":"Retrieved text for element css=span containing Entrar"}
{"level":30,"time":"2021-09-14T15:51:07.990Z","pid":16892,"hostname":"DESKTOP-085PCSR","msg":"Retrieved text for element css=span containing Entrar"}
{"level":30,"time":"2021-09-14T15:51:08.019Z","pid":16892,"hostname":"DESKTOP-085PCSR","msg":"Retrieved text for element css=span containing Entrar"}
{"level":30,"time":"2021-09-14T15:51:08.056Z","pid":16892,"hostname":"DESKTOP-085PCSR","msg":"Retrieved text for element css=span containing Entrar"}
{"level":30,"time":"2021-09-14T15:51:08.104Z","pid":16892,"hostname":"DESKTOP-085PCSR","msg":"Retrieved text for element css=span containing Grupo não encontrado"}
================= Original suppressed error =================
Error: No context for id context=64136e05-da50-4ae3-a94d-9899be51bdbe. Open contexts: context=043d699b-780b-4a92-b49a-479514b58410
    at c:\users\fvastres\appdata\local\programs\python\python39\lib\site-packages\Browser\wrapper\index.js:26397:23
    at step (c:\users\fvastres\appdata\local\programs\python\python39\lib\site-packages\Browser\wrapper\index.js:25707:23)
    at Object.next (c:\users\fvastres\appdata\local\programs\python\python39\lib\site-packages\Browser\wrapper\index.js:25688:53)
    at c:\users\fvastres\appdata\local\programs\python\python39\lib\site-packages\Browser\wrapper\index.js:25682:71
    at new Promise (<anonymous>)
    at __webpack_modules__../node/playwright-wrapper/playwright-state.ts.__awaiter (c:\users\fvastres\appdata\local\programs\python\python39\lib\site-packages\Browser\wrapper\index.js:25678:12)
    at _switchContext (c:\users\fvastres\appdata\local\programs\python\python39\lib\site-packages\Browser\wrapper\index.js:26385:12)
    at Object.<anonymous> (c:\users\fvastres\appdata\local\programs\python\python39\lib\site-packages\Browser\wrapper\index.js:26482:42)
    at step (c:\users\fvastres\appdata\local\programs\python\python39\lib\site-packages\Browser\wrapper\index.js:25707:23)
    at Object.next (c:\users\fvastres\appdata\local\programs\python\python39\lib\site-packages\Browser\wrapper\index.js:25688:53)
=============================================================
================= Original suppressed error =================
Error: No context for id context=64136e05-da50-4ae3-a94d-9899be51bdbe. Open contexts: context=043d699b-780b-4a92-b49a-479514b58410
    at c:\users\fvastres\appdata\local\programs\python\python39\lib\site-packages\Browser\wrapper\index.js:26397:23
    at step (c:\users\fvastres\appdata\local\programs\python\python39\lib\site-packages\Browser\wrapper\index.js:25707:23)
    at Object.next (c:\users\fvastres\appdata\local\programs\python\python39\lib\site-packages\Browser\wrapper\index.js:25688:53)
    at c:\users\fvastres\appdata\local\programs\python\python39\lib\site-packages\Browser\wrapper\index.js:25682:71
    at new Promise (<anonymous>)
    at __webpack_modules__../node/playwright-wrapper/playwright-state.ts.__awaiter (c:\users\fvastres\appdata\local\programs\python\python39\lib\site-packages\Browser\wrapper\index.js:25678:12)
    at _switchContext (c:\users\fvastres\appdata\local\programs\python\python39\lib\site-packages\Browser\wrapper\index.js:26385:12)
    at Object.<anonymous> (c:\users\fvastres\appdata\local\programs\python\python39\lib\site-packages\Browser\wrapper\index.js:26482:42)
    at step (c:\users\fvastres\appdata\local\programs\python\python39\lib\site-packages\Browser\wrapper\index.js:25707:23)
    at Object.next (c:\users\fvastres\appdata\local\programs\python\python39\lib\site-packages\Browser\wrapper\index.js:25688:53)
=============================================================
{"level":30,"time":"2021-09-14T15:51:08.842Z","pid":16892,"hostname":"DESKTOP-085PCSR","msg":"currentBrowser: [object Object]"}
{"level":30,"time":"2021-09-14T15:51:08.862Z","pid":16892,"hostname":"DESKTOP-085PCSR","msg":"Changed active context"}
{"level":30,"time":"2021-09-14T15:51:08.865Z","pid":16892,"hostname":"DESKTOP-085PCSR","msg":"currentBrowser: [object Object]"}
{"level":30,"time":"2021-09-14T15:51:09.030Z","pid":16892,"hostname":"DESKTOP-085PCSR","msg":"Video path: undefined"}
{"level":30,"time":"2021-09-14T15:51:09.030Z","pid":16892,"hostname":"DESKTOP-085PCSR","msg":"Changed active page"}
{"level":30,"time":"2021-09-14T15:51:10.394Z","pid":16892,"hostname":"DESKTOP-085PCSR","msg":"Retrieved text for element h1 containing Gerenciamento de restaurantes"}
{"level":30,"time":"2021-09-14T15:51:10.737Z","pid":16892,"hostname":"DESKTOP-085PCSR","msg":"currentBrowser: [object Object]"}
{"level":30,"time":"2021-09-14T15:51:10.756Z","pid":16892,"hostname":"DESKTOP-085PCSR","msg":"Changed active context"}
{"level":30,"time":"2021-09-14T15:51:10.760Z","pid":16892,"hostname":"DESKTOP-085PCSR","msg":"currentBrowser: [object Object]"}
{"level":30,"time":"2021-09-14T15:51:10.950Z","pid":16892,"hostname":"DESKTOP-085PCSR","msg":"Video path: undefined"}
{"level":30,"time":"2021-09-14T15:51:10.951Z","pid":16892,"hostname":"DESKTOP-085PCSR","msg":"Changed active page"}
{"level":30,"time":"2021-09-14T15:51:12.051Z","pid":16892,"hostname":"DESKTOP-085PCSR","msg":"Retrieved text for element h1 containing Gerenciamento de restaurantes"}
{"level":30,"time":"2021-09-14T15:51:12.279Z","pid":16892,"hostname":"DESKTOP-085PCSR","msg":"Retrieved text for element css=span containing Entrar"}
{"level":30,"time":"2021-09-14T15:51:12.315Z","pid":16892,"hostname":"DESKTOP-085PCSR","msg":"Retrieved text for element css=span containing Entrar"}
{"level":30,"time":"2021-09-14T15:51:12.348Z","pid":16892,"hostname":"DESKTOP-085PCSR","msg":"Retrieved text for element css=span containing Entrar"}
{"level":30,"time":"2021-09-14T15:51:12.378Z","pid":16892,"hostname":"DESKTOP-085PCSR","msg":"Retrieved text for element css=span containing Entrar"}
{"level":30,"time":"2021-09-14T15:51:12.411Z","pid":16892,"hostname":"DESKTOP-085PCSR","msg":"Retrieved text for element css=span containing Entrar"}
{"level":30,"time":"2021-09-14T15:51:12.441Z","pid":16892,"hostname":"DESKTOP-085PCSR","msg":"Retrieved text for element css=span containing Login recusado"}
================= Original suppressed error =================
Error: No context for id context=92b42012-15f5-498a-ad84-a66b953162d4. Open contexts: context=fe996982-a152-4b6a-9341-590f610879ad
    at c:\users\fvastres\appdata\local\programs\python\python39\lib\site-packages\Browser\wrapper\index.js:26397:23
    at step (c:\users\fvastres\appdata\local\programs\python\python39\lib\site-packages\Browser\wrapper\index.js:25707:23)
    at Object.next (c:\users\fvastres\appdata\local\programs\python\python39\lib\site-packages\Browser\wrapper\index.js:25688:53)
    at c:\users\fvastres\appdata\local\programs\python\python39\lib\site-packages\Browser\wrapper\index.js:25682:71
    at new Promise (<anonymous>)
    at __webpack_modules__../node/playwright-wrapper/playwright-state.ts.__awaiter (c:\users\fvastres\appdata\local\programs\python\python39\lib\site-packages\Browser\wrapper\index.js:25678:12)
    at _switchContext (c:\users\fvastres\appdata\local\programs\python\python39\lib\site-packages\Browser\wrapper\index.js:26385:12)
    at Object.<anonymous> (c:\users\fvastres\appdata\local\programs\python\python39\lib\site-packages\Browser\wrapper\index.js:26482:42)
    at step (c:\users\fvastres\appdata\local\programs\python\python39\lib\site-packages\Browser\wrapper\index.js:25707:23)
    at Object.next (c:\users\fvastres\appdata\local\programs\python\python39\lib\site-packages\Browser\wrapper\index.js:25688:53)
=============================================================
================= Original suppressed error =================
Error: No context for id context=92b42012-15f5-498a-ad84-a66b953162d4. Open contexts: context=fe996982-a152-4b6a-9341-590f610879ad
    at c:\users\fvastres\appdata\local\programs\python\python39\lib\site-packages\Browser\wrapper\index.js:26397:23
    at step (c:\users\fvastres\appdata\local\programs\python\python39\lib\site-packages\Browser\wrapper\index.js:25707:23)
    at Object.next (c:\users\fvastres\appdata\local\programs\python\python39\lib\site-packages\Browser\wrapper\index.js:25688:53)
    at c:\users\fvastres\appdata\local\programs\python\python39\lib\site-packages\Browser\wrapper\index.js:25682:71
    at new Promise (<anonymous>)
    at __webpack_modules__../node/playwright-wrapper/playwright-state.ts.__awaiter (c:\users\fvastres\appdata\local\programs\python\python39\lib\site-packages\Browser\wrapper\index.js:25678:12)
    at _switchContext (c:\users\fvastres\appdata\local\programs\python\python39\lib\site-packages\Browser\wrapper\index.js:26385:12)
    at Object.<anonymous> (c:\users\fvastres\appdata\local\programs\python\python39\lib\site-packages\Browser\wrapper\index.js:26482:42)
    at step (c:\users\fvastres\appdata\local\programs\python\python39\lib\site-packages\Browser\wrapper\index.js:25707:23)
    at Object.next (c:\users\fvastres\appdata\local\programs\python\python39\lib\site-packages\Browser\wrapper\index.js:25688:53)
=============================================================
{"level":30,"time":"2021-09-14T15:51:13.282Z","pid":16892,"hostname":"DESKTOP-085PCSR","msg":"currentBrowser: [object Object]"}
{"level":30,"time":"2021-09-14T15:51:13.327Z","pid":16892,"hostname":"DESKTOP-085PCSR","msg":"Changed active context"}
{"level":30,"time":"2021-09-14T15:51:13.330Z","pid":16892,"hostname":"DESKTOP-085PCSR","msg":"currentBrowser: [object Object]"}
{"level":30,"time":"2021-09-14T15:51:13.677Z","pid":16892,"hostname":"DESKTOP-085PCSR","msg":"Video path: undefined"}
{"level":30,"time":"2021-09-14T15:51:13.677Z","pid":16892,"hostname":"DESKTOP-085PCSR","msg":"Changed active page"}
{"level":30,"time":"2021-09-14T15:51:14.966Z","pid":16892,"hostname":"DESKTOP-085PCSR","msg":"Retrieved text for element h1 containing Gerenciamento de restaurantes"}
{"level":30,"time":"2021-09-14T15:51:15.480Z","pid":16892,"hostname":"DESKTOP-085PCSR","msg":"currentBrowser: [object Object]"}
{"level":30,"time":"2021-09-14T15:51:15.496Z","pid":16892,"hostname":"DESKTOP-085PCSR","msg":"Changed active context"}
{"level":30,"time":"2021-09-14T15:51:15.501Z","pid":16892,"hostname":"DESKTOP-085PCSR","msg":"currentBrowser: [object Object]"}
{"level":30,"time":"2021-09-14T15:51:15.942Z","pid":16892,"hostname":"DESKTOP-085PCSR","msg":"Video path: undefined"}
{"level":30,"time":"2021-09-14T15:51:15.942Z","pid":16892,"hostname":"DESKTOP-085PCSR","msg":"Changed active page"}
{"level":30,"time":"2021-09-14T15:51:17.468Z","pid":16892,"hostname":"DESKTOP-085PCSR","msg":"Retrieved text for element h1 containing Gerenciamento de restaurantes"}
================= Original suppressed error =================
Error: No context for id context=8662559e-c54e-462d-830f-e53805bb0022. Open contexts: context=3431f12e-33dc-4410-8eb6-2ef1077698f6
    at c:\users\fvastres\appdata\local\programs\python\python39\lib\site-packages\Browser\wrapper\index.js:26397:23
    at step (c:\users\fvastres\appdata\local\programs\python\python39\lib\site-packages\Browser\wrapper\index.js:25707:23)
    at Object.next (c:\users\fvastres\appdata\local\programs\python\python39\lib\site-packages\Browser\wrapper\index.js:25688:53)
    at c:\users\fvastres\appdata\local\programs\python\python39\lib\site-packages\Browser\wrapper\index.js:25682:71
    at new Promise (<anonymous>)
    at __webpack_modules__../node/playwright-wrapper/playwright-state.ts.__awaiter (c:\users\fvastres\appdata\local\programs\python\python39\lib\site-packages\Browser\wrapper\index.js:25678:12)
    at _switchContext (c:\users\fvastres\appdata\local\programs\python\python39\lib\site-packages\Browser\wrapper\index.js:26385:12)
    at Object.<anonymous> (c:\users\fvastres\appdata\local\programs\python\python39\lib\site-packages\Browser\wrapper\index.js:26482:42)
    at step (c:\users\fvastres\appdata\local\programs\python\python39\lib\site-packages\Browser\wrapper\index.js:25707:23)
    at Object.next (c:\users\fvastres\appdata\local\programs\python\python39\lib\site-packages\Browser\wrapper\index.js:25688:53)
=============================================================
================= Original suppressed error =================
Error: No context for id context=8662559e-c54e-462d-830f-e53805bb0022. Open contexts: context=3431f12e-33dc-4410-8eb6-2ef1077698f6
    at c:\users\fvastres\appdata\local\programs\python\python39\lib\site-packages\Browser\wrapper\index.js:26397:23
    at step (c:\users\fvastres\appdata\local\programs\python\python39\lib\site-packages\Browser\wrapper\index.js:25707:23)
    at Object.next (c:\users\fvastres\appdata\local\programs\python\python39\lib\site-packages\Browser\wrapper\index.js:25688:53)
    at c:\users\fvastres\appdata\local\programs\python\python39\lib\site-packages\Browser\wrapper\index.js:25682:71
    at new Promise (<anonymous>)
    at __webpack_modules__../node/playwright-wrapper/playwright-state.ts.__awaiter (c:\users\fvastres\appdata\local\programs\python\python39\lib\site-packages\Browser\wrapper\index.js:25678:12)
    at _switchContext (c:\users\fvastres\appdata\local\programs\python\python39\lib\site-packages\Browser\wrapper\index.js:26385:12)
    at Object.<anonymous> (c:\users\fvastres\appdata\local\programs\python\python39\lib\site-packages\Browser\wrapper\index.js:26482:42)
    at step (c:\users\fvastres\appdata\local\programs\python\python39\lib\site-packages\Browser\wrapper\index.js:25707:23)
    at Object.next (c:\users\fvastres\appdata\local\programs\python\python39\lib\site-packages\Browser\wrapper\index.js:25688:53)
=============================================================
{"level":30,"time":"2021-09-14T15:51:18.940Z","pid":16892,"hostname":"DESKTOP-085PCSR","msg":"currentBrowser: [object Object]"}
{"level":30,"time":"2021-09-14T15:51:18.979Z","pid":16892,"hostname":"DESKTOP-085PCSR","msg":"Changed active context"}
{"level":30,"time":"2021-09-14T15:51:18.983Z","pid":16892,"hostname":"DESKTOP-085PCSR","msg":"currentBrowser: [object Object]"}
{"level":30,"time":"2021-09-14T15:51:19.268Z","pid":16892,"hostname":"DESKTOP-085PCSR","msg":"Video path: undefined"}
{"level":30,"time":"2021-09-14T15:51:19.268Z","pid":16892,"hostname":"DESKTOP-085PCSR","msg":"Changed active page"}
{"level":30,"time":"2021-09-14T15:51:21.087Z","pid":16892,"hostname":"DESKTOP-085PCSR","msg":"Retrieved text for element h1 containing Gerenciamento de restaurantes"}
{"level":30,"time":"2021-09-14T15:51:21.629Z","pid":16892,"hostname":"DESKTOP-085PCSR","msg":"currentBrowser: [object Object]"}
{"level":30,"time":"2021-09-14T15:51:21.669Z","pid":16892,"hostname":"DESKTOP-085PCSR","msg":"Changed active context"}
{"level":30,"time":"2021-09-14T15:51:21.673Z","pid":16892,"hostname":"DESKTOP-085PCSR","msg":"currentBrowser: [object Object]"}
{"level":30,"time":"2021-09-14T15:51:22.036Z","pid":16892,"hostname":"DESKTOP-085PCSR","msg":"Video path: undefined"}
{"level":30,"time":"2021-09-14T15:51:22.037Z","pid":16892,"hostname":"DESKTOP-085PCSR","msg":"Changed active page"}
{"level":30,"time":"2021-09-14T15:51:23.718Z","pid":16892,"hostname":"DESKTOP-085PCSR","msg":"Retrieved text for element h1 containing Gerenciamento de restaurantes"}
================= Original suppressed error =================
Error: No context for id context=1a8e8f90-9b2e-4cf8-b4b5-63fbcff6e0fb. Open contexts: context=c42b6a1b-9158-476c-8861-1f0a1009bfcd
    at c:\users\fvastres\appdata\local\programs\python\python39\lib\site-packages\Browser\wrapper\index.js:26397:23
    at step (c:\users\fvastres\appdata\local\programs\python\python39\lib\site-packages\Browser\wrapper\index.js:25707:23)
    at Object.next (c:\users\fvastres\appdata\local\programs\python\python39\lib\site-packages\Browser\wrapper\index.js:25688:53)
    at c:\users\fvastres\appdata\local\programs\python\python39\lib\site-packages\Browser\wrapper\index.js:25682:71
    at new Promise (<anonymous>)
    at __webpack_modules__../node/playwright-wrapper/playwright-state.ts.__awaiter (c:\users\fvastres\appdata\local\programs\python\python39\lib\site-packages\Browser\wrapper\index.js:25678:12)
    at _switchContext (c:\users\fvastres\appdata\local\programs\python\python39\lib\site-packages\Browser\wrapper\index.js:26385:12)
    at Object.<anonymous> (c:\users\fvastres\appdata\local\programs\python\python39\lib\site-packages\Browser\wrapper\index.js:26482:42)
    at step (c:\users\fvastres\appdata\local\programs\python\python39\lib\site-packages\Browser\wrapper\index.js:25707:23)
    at Object.next (c:\users\fvastres\appdata\local\programs\python\python39\lib\site-packages\Browser\wrapper\index.js:25688:53)
=============================================================
================= Original suppressed error =================
Error: No context for id context=1a8e8f90-9b2e-4cf8-b4b5-63fbcff6e0fb. Open contexts: context=c42b6a1b-9158-476c-8861-1f0a1009bfcd
    at c:\users\fvastres\appdata\local\programs\python\python39\lib\site-packages\Browser\wrapper\index.js:26397:23
    at step (c:\users\fvastres\appdata\local\programs\python\python39\lib\site-packages\Browser\wrapper\index.js:25707:23)
    at Object.next (c:\users\fvastres\appdata\local\programs\python\python39\lib\site-packages\Browser\wrapper\index.js:25688:53)
    at c:\users\fvastres\appdata\local\programs\python\python39\lib\site-packages\Browser\wrapper\index.js:25682:71
    at new Promise (<anonymous>)
    at __webpack_modules__../node/playwright-wrapper/playwright-state.ts.__awaiter (c:\users\fvastres\appdata\local\programs\python\python39\lib\site-packages\Browser\wrapper\index.js:25678:12)
    at _switchContext (c:\users\fvastres\appdata\local\programs\python\python39\lib\site-packages\Browser\wrapper\index.js:26385:12)
    at Object.<anonymous> (c:\users\fvastres\appdata\local\programs\python\python39\lib\site-packages\Browser\wrapper\index.js:26482:42)
    at step (c:\users\fvastres\appdata\local\programs\python\python39\lib\site-packages\Browser\wrapper\index.js:25707:23)
    at Object.next (c:\users\fvastres\appdata\local\programs\python\python39\lib\site-packages\Browser\wrapper\index.js:25688:53)
=============================================================
